[
  {
    "id": "895d2fa0-c7d2-4d7b-b074-998cb688997c",
    "name": "FIRST: Sample Request Workflow",
    "description": "This workflow is the first of a kind",
    "creator": "Sergio Viula",
    "createdAt": "new Date()",
    "lastModifiedBy": "Sergio Viula",
    "modifiedAt": "new Date()",
    "isValid": true,
    "inUse": false,
    "isActive": false,
    "tags": ["first", "the best"],
    "allowedGroups": ["admins", "ebay", "sentiment"],
    "variables": [
      {
        "id": "form_id",
        "name": "This is a Form",
        "dataType": "complex",
        "description": "This is a Description for this Form",
        "schema": {
          "id": {
            "title": "User ID",
            "type": "number"
          },
          "firstName": {
            "title": "First Name",
            "type": "text"
          },
          "secondName": {
            "title": "Second Name",
            "type": "text"
          }
        }
      },
      {
        "id": "userEmail",
        "name": "The Email",
        "dataType": "email"
      }
    ],
    "nodes": [
      {
        "id": "INITIAL_NODE",
        "title": "User Input",
        "step": 1,
        "operation": "USER_INPUT",
        "config": {
          "schemaId": "form_id"
        },
        "next": 2,
        "output": "form_id"
      },
      {
        "id": "SECOND_NODE",
        "title": "HTTP REQUEST",
        "step": 2,
        "operation": "API_CALL",
        "config": {
          "url": "https://reqres.in/api/users/$$form_id.id$$",
          "next": 3
        },
        "next": 3,
        "output": "userEmail"
      },
      {
        "id": "THIRD_NODE",
        "title": "DECISION BOOLEAN",
        "step": 3,
        "operation": "DECISION_BOOLEAN",
        "config": {
          "trueStep": 4,
          "falseStep": 5,
          "condition": "$$userEmail$$==='sergio@email.com'"
        }
      }
    ]
  }
]
